,animal,color,weight,owner
0,rabbit,blue,1.9441759358853972,Simone
1,rabbit,red,6.485406300678908,Simone
2,dog,blue,1.9149748767532948,Bob
3,rabbit,red,8.863965058549782,Simone
4,dog,red,4.249778536275446,Simone
5,rabbit,red,7.614228112631727,Simone
6,dog,blue,4.151197349717321,Bob
7,dog,red,6.774715721967082,Simone
8,rabbit,red,2.335261481114268,Simone
9,rabbit,red,4.8349443986950815,Bob
10,rabbit,red,5.930718249125969,Bob
11,rabbit,blue,1.4525923823031806,Bob
12,dog,red,6.640603448750007,Bob
13,dog,blue,5.492598585697327,Bob
14,dog,blue,8.867827555483961,Simone
15,rabbit,blue,1.7141976915245338,Bob
16,rabbit,blue,8.803416276920672,Simone
17,dog,blue,1.5227851057219632,Bob
18,dog,blue,1.7920408712545088,Simone
19,dog,red,0.4555751344976844,Bob
